^C:\USERS\EMAN\SOURCE\REPOS\GDSTRUCT-POKEMON-RPG-PERONO\BSPRG2_POKEMON_RPG-FINAL\DEBUG\POKEMON.OBJ|C:\USERS\EMAN\SOURCE\REPOS\GDSTRUCT-POKEMON-RPG-PERONO\BSPRG2_POKEMON_RPG-FINAL\DEBUG\SOURCE.OBJ
C:\USERS\EMAN\SOURCE\REPOS\GDSTRUCT-POKEMON-RPG-PERONO\DEBUG\GDSTRUCT-POKEMON-RPG.EXE
C:\USERS\EMAN\SOURCE\REPOS\GDSTRUCT-POKEMON-RPG-PERONO\DEBUG\GDSTRUCT-POKEMON-RPG.ILK
C:\USERS\EMAN\SOURCE\REPOS\GDSTRUCT-POKEMON-RPG-PERONO\DEBUG\GDSTRUCT-POKEMON-RPG.PDB
