^C:\USERS\EMAN\SOURCE\REPOS\BSPRG2_POKEMON_RPG-FINAL\BSPRG2_POKEMON_RPG-FINAL\DEBUG\POKEMON.OBJ|C:\USERS\EMAN\SOURCE\REPOS\BSPRG2_POKEMON_RPG-FINAL\BSPRG2_POKEMON_RPG-FINAL\DEBUG\SOURCE.OBJ
C:\USERS\EMAN\SOURCE\REPOS\BSPRG2_POKEMON_RPG-FINAL\DEBUG\BSPRG2_POKEMON_RPG-FINAL.EXE
C:\USERS\EMAN\SOURCE\REPOS\BSPRG2_POKEMON_RPG-FINAL\DEBUG\BSPRG2_POKEMON_RPG-FINAL.ILK
C:\USERS\EMAN\SOURCE\REPOS\BSPRG2_POKEMON_RPG-FINAL\DEBUG\BSPRG2_POKEMON_RPG-FINAL.PDB
^C:\USERS\EMAN\SOURCE\REPOS\GDSTRUCT-POKEMON-RPG-PERONO\BSPRG2_POKEMON_RPG-FINAL\DEBUG\POKEMON.OBJ|C:\USERS\EMAN\SOURCE\REPOS\GDSTRUCT-POKEMON-RPG-PERONO\BSPRG2_POKEMON_RPG-FINAL\DEBUG\SOURCE.OBJ
C:\USERS\EMAN\SOURCE\REPOS\GDSTRUCT-POKEMON-RPG-PERONO\DEBUG\BSPRG2_POKEMON_RPG-FINAL.EXE
C:\USERS\EMAN\SOURCE\REPOS\GDSTRUCT-POKEMON-RPG-PERONO\DEBUG\BSPRG2_POKEMON_RPG-FINAL.ILK
C:\USERS\EMAN\SOURCE\REPOS\GDSTRUCT-POKEMON-RPG-PERONO\DEBUG\BSPRG2_POKEMON_RPG-FINAL.PDB
